module dapp

go 1.18

require (
	github.com/StackExchange/wmi v1.2.1 // indirect
	github.com/btcsuite/btcd/btcec/v2 v2.2.0 // indirect
	github.com/deckarep/golang-set v1.8.0 // indirect
	github.com/decred/dcrd/dcrec/secp256k1/v4 v4.0.1 // indirect
	github.com/ethereum/go-ethereum v1.10.17 // indirect
	github.com/go-ole/go-ole v1.2.6 // indirect
	github.com/go-stack/stack v1.8.1 // indirect
	github.com/google/uuid v1.3.0 // indirect
	github.com/gorilla/websocket v1.5.0 // indirect
	github.com/rjeczalik/notify v0.9.2 // indirect
	github.com/shirou/gopsutil v3.21.11+incompatible // indirect
	github.com/tklauser/go-sysconf v0.3.10 // indirect
	github.com/tklauser/numcpus v0.4.0 // indirect
	github.com/yusufpapurcu/wmi v1.2.2 // indirect
	golang.org/x/crypto v0.0.0-20220513210258-46612604a0f9 // indirect
	golang.org/x/sys v0.0.0-20220513210249-45d2b4557a2a // indirect
	golang.org/x/text v0.3.7 // indirect
	gopkg.in/natefinch/npipe.v2 v2.0.0-20160621034901-c1b8fa8bdcce // indirect
)
